HW1/transcript
# Compile of ALU.v was successful.
# Compile of CompALU.v was successful.
# Compile of RF.v was successful.
# Compile of tb_ALU.v was successful.
# Compile of tb_CompALU.v was successful.
# Compile of tb_RF.v was successful.
# 6 compiles, 0 failed with no errors.
vsim -gui work.tb_ALU
# vsim -gui work.tb_ALU 
# Start time: 01:15:45 on Mar 17,2024
# Loading work.tb_ALU
# Loading work.ALU
# ** Warning: (vsim-PLI-3691) D:/c_Dpractice/Computer_organization/Computer_organization/HW1/tb_ALU.v(101): Expected a system task, not a system function '$fscanf'.
#    Time: 0 ns  Iteration: 0  Region: /tb_ALU/StimuliProcess File: D:/c_Dpractice/Computer_organization/Computer_organization/HW1/tb_ALU.v
add wave -position insertpoint  \
sim:/tb_ALU/Src_1 \
sim:/tb_ALU/Src_2 \
sim:/tb_ALU/Shamt \
sim:/tb_ALU/Funct \
sim:/tb_ALU/ALU_result \
sim:/tb_ALU/Zero \
sim:/tb_ALU/Carry
run -all
# Src_1:00000111011000000001001001111111, Src_2:01011000011111110100011110011100, Shamt:00000, Funct:010001
# ALU_result:   6291996, Z:0, C:0
# Src_1:01111010101100110110110000111111, Src_2:01001101101110000110111111110001, Shamt:11100, Funct:010001
# ALU_result:1219521585, Z:0, C:0
# Src_1:00001111111000101011100010010011, Src_2:01011111001100010010010110000011, Shamt:00111, Funct:100010
# ALU_result:   2082161, Z:0, C:0
# Src_1:00010100111011100111100101101111, Src_2:01010010011000110111011111010110, Shamt:01000, Funct:010001
# ALU_result: 274886982, Z:0, C:0
# Src_1:01111111110100010111011110011100, Src_2:00011100111011001000111000110111, Shamt:10100, Funct:001010
# ALU_result:1659169125, Z:0, C:0
# Src_1:01001001010100101110001111001110, Src_2:01101010010011000111101000001010, Shamt:01101, Funct:010001
# ALU_result:1212178954, Z:0, C:0
# Src_1:00010000000111100001100001111110, Src_2:00001101011001100010011100010000, Shamt:01101, Funct:100010
# ALU_result:     33008, Z:0, C:0
# Src_1:01000001010010101000001001101010, Src_2:01100000110010100010001011001000, Shamt:00110, Funct:001001
# ALU_result:2719262002, Z:0, C:0
# Src_1:01000001010010100101000011001010, Src_2:00001011110101111101100100000100, Shamt:01110, Funct:001001
# ALU_result:1294084558, Z:0, C:0
# Src_1:10110000111100111011110100000000, Src_2:01101011011110011100101111010101, Shamt:01101, Funct:010001
# ALU_result: 544311552, Z:0, C:0
# Src_1:00111111101100000101111001010001, Src_2:00110001100100010001001000100010, Shamt:00001, Funct:001010
# ALU_result: 236932143, Z:0, C:0
# Src_1:01111000110000111011101110101111, Src_2:00110011001010110000110010100111, Shamt:01001, Funct:010001
# ALU_result: 805505191, Z:0, C:0
# Src_1:00011111101100101111110111101000, Src_2:00100111011100100110001101001010, Shamt:10010, Funct:001010
# ALU_result:4164983454, Z:0, C:1
# Src_1:01111000001111111111001101110000, Src_2:00100010011111111110110010110100, Shamt:11110, Funct:010001
# ALU_result: 541057072, Z:0, C:0
# Src_1:01000010001001010001111011011111, Src_2:00110101011010000110010000000001, Shamt:11011, Funct:100010
# ALU_result:         8, Z:0, C:0
# Src_1:00001011101111100110000110101100, Src_2:01011111000100101111000001100000, Shamt:01110, Funct:001010
# ALU_result:2896916812, Z:0, C:1
# Src_1:01011011100110000100111000100110, Src_2:00000011011110000001011000101000, Shamt:10100, Funct:010001
# ALU_result:  51906080, Z:0, C:0
# Src_1:00100110101001110011110010001001, Src_2:01100111110111111010010101110111, Shamt:11101, Funct:001001
# ALU_result:2391204352, Z:0, C:0
# Src_1:00000110110101001001011000101011, Src_2:01101111000001111000000000010100, Shamt:11011, Funct:001010
# ALU_result:2546800151, Z:0, C:1
# Src_1:01100011011111111010001101000010, Src_2:01010000001100010011110001110000, Shamt:10001, Funct:001001
# ALU_result:3014713266, Z:0, C:0
# Src_1:01011110101101011100100110010000, Src_2:01100111100100011110001011110100, Shamt:11101, Funct:010001
# ALU_result:1183957136, Z:0, C:0
# Src_1:01111000101101110100110000111000, Src_2:00001010010111010110010100011100, Shamt:01000, Funct:100010
# ALU_result:   7911244, Z:0, C:0
# Src_1:00101011111100111010110111000100, Src_2:00000000101110100100000100111011, Shamt:00111, Funct:010001
# ALU_result:  11665664, Z:0, C:0
# Src_1:01010010000000111101100111011100, Src_2:00100100001001001011101010110101, Shamt:11001, Funct:100010
# ALU_result:        41, Z:0, C:0
# Src_1:01110010101100001010111110100000, Src_2:01101000110101100010000110101001, Shamt:10110, Funct:010001
# ALU_result:1620058528, Z:0, C:0
# Src_1:10101101101100010000111011011100, Src_2:00000110011010001110111001100001, Shamt:00000, Funct:100010
# ALU_result:2914062044, Z:0, C:0
# Src_1:00001101101011111011101010010100, Src_2:00110010001011011111110011010101, Shamt:00110, Funct:001001
# ALU_result:1071495017, Z:0, C:0
# Src_1:11111000101010010110101010101110, Src_2:00101000011111011110011011000000, Shamt:00110, Funct:001001
# ALU_result: 556224878, Z:0, C:1
# Src_1:01100111000000011111011001111011, Src_2:01111011000110111001101001110010, Shamt:01000, Funct:010001
# ALU_result:1661047410, Z:0, C:0
# Src_1:00000111101111101000101010001100, Src_2:01000001001011100011111110011100, Shamt:01000, Funct:010001
# ALU_result:  19794572, Z:0, C:0
# Src_1:01000011110011001000111001111110, Src_2:00010111111010001000010001000010, Shamt:10110, Funct:010001
# ALU_result:  63472706, Z:0, C:0
# Src_1:01011110001100101101010110110101, Src_2:11100110101011011010110110111100, Shamt:01010, Funct:100010
# ALU_result:   1543349, Z:0, C:0
# Src_1:00000011001000100000001100100110, Src_2:00111010010011111010111011010111, Shamt:11111, Funct:001010
# ALU_result:3369227343, Z:0, C:1
# Src_1:00000010001010000011011001100001, Src_2:00111100011001011001111101011100, Shamt:11100, Funct:001010
# ALU_result:3317864197, Z:0, C:1
# Src_1:01001001110011100101000000000100, Src_2:00111101000000100000111011110101, Shamt:11010, Funct:010001
# ALU_result: 151126020, Z:0, C:0
# Src_1:01000000101001000000001101011010, Src_2:00001110000101000101011001111111, Shamt:01110, Funct:001001
# ALU_result:1320704473, Z:0, C:0
# Src_1:01100111001011000100110001110001, Src_2:01010011110001001000111000110110, Shamt:01000, Funct:100010
# ALU_result:   6761548, Z:0, C:0
# Src_1:01011111100110001100100100000111, Src_2:00011001111110011111101110111100, Shamt:01000, Funct:001001
# ALU_result:2039661763, Z:0, C:0
# Src_1:00111100100001001111111110100100, Src_2:01111010000001111001010111000010, Shamt:00001, Funct:001010
# ALU_result:3262999010, Z:0, C:1
# Src_1:10111001110000001110100011100010, Src_2:00110110111001001000111111110000, Shamt:01101, Funct:001001
# ALU_result:4037376210, Z:0, C:0
# Src_1:10111110110111001000010111011000, Src_2:10001111011110100111110011010000, Shamt:00110, Funct:001001
# ALU_result:1314325160, Z:0, C:1
# Src_1:01101110000101010011110111110111, Src_2:00010111010111111010001100100011, Shamt:11011, Funct:001001
# ALU_result:2239029530, Z:0, C:0
# Src_1:01111101000000010110000101000101, Src_2:01010111001101001011100110110000, Shamt:00110, Funct:001001
# ALU_result:3560315637, Z:0, C:0
# Src_1:00101011010111101010011100001110, Src_2:00111100100011011101100010110101, Shamt:01110, Funct:001010
# ALU_result:4006661721, Z:0, C:1
# Src_1:01110110111111100111010000101101, Src_2:01010101011101001010000001101101, Shamt:00101, Funct:010001
# ALU_result:1416896557, Z:0, C:0
# Src_1:00100001011011010011100110100000, Src_2:01100010010101001110000110011101, Shamt:01101, Funct:100010
# ALU_result:     68457, Z:0, C:0
# Src_1:01101100000101111011100010110011, Src_2:01001100111001000011111100111000, Shamt:01101, Funct:001010
# ALU_result: 523467131, Z:0, C:0
# Src_1:00111111101000110011111001011100, Src_2:01101101111110111100001100100010, Shamt:00010, Funct:010001
# ALU_result: 765657600, Z:0, C:0
# Src_1:00111100111010110010101011010111, Src_2:00111010110100110010101111010110, Shamt:10001, Funct:100010
# ALU_result:      7797, Z:0, C:0
# Src_1:00110100101000100011000011001010, Src_2:00000010011011011110011001011111, Shamt:00101, Funct:001010
# ALU_result: 842287723, Z:0, C:0
# Src_1:11110101111011011100000001001010, Src_2:01111100100000110001010111001110, Shamt:11101, Funct:001001
# ALU_result:1919997464, Z:0, C:1
# Src_1:00101000010100101100001010010000, Src_2:01001101000111001010100111010110, Shamt:00010, Funct:100010
# ALU_result: 169128100, Z:0, C:0
# Src_1:01100101100101010100100011101010, Src_2:01011111111100000010100001011010, Shamt:11001, Funct:001001
# ALU_result:3313856836, Z:0, C:0
# Src_1:00101011100011000101000110111111, Src_2:01011111011010100010110111010111, Shamt:00111, Funct:001001
# ALU_result:2331410326, Z:0, C:0
# Src_1:01011010000010111110010011111011, Src_2:00001000110011011100000011011011, Shamt:01101, Funct:001010
# ALU_result:1363026976, Z:0, C:0
# Src_1:01100001111100110011111010110111, Src_2:01011000111011101111110010000011, Shamt:01111, Funct:001010
# ALU_result: 151274036, Z:0, C:0
# Src_1:01100101110111110000111001111111, Src_2:00110110001111101111001100000010, Shamt:00111, Funct:001010
# ALU_result: 799021949, Z:0, C:0
# Src_1:00010111111110001010100010000101, Src_2:11111111010011111110001100110100, Shamt:10011, Funct:001010
# ALU_result: 413713745, Z:0, C:1
# Src_1:01110111011110100101111011100000, Src_2:00110110000100000101111001000010, Shamt:00001, Funct:100010
# ALU_result:1002254192, Z:0, C:0
# Src_1:01111110000010111100010010010001, Src_2:00001100111011100000001010101101, Shamt:01111, Funct:100010
# ALU_result:     64535, Z:0, C:0
# Src_1:01001110111011010000111001100101, Src_2:00101100111111011010101010101111, Shamt:00111, Funct:010001
# ALU_result: 216861221, Z:0, C:0
# Src_1:00001110011111011001110000101110, Src_2:00101011011011100000110110000101, Shamt:00101, Funct:001010
# ALU_result:3809447593, Z:0, C:1
# Src_1:01010001011011001011010100011100, Src_2:00101000010111010001100101001011, Shamt:11010, Funct:010001
# ALU_result:   4985096, Z:0, C:0
# Src_1:00000000010011100111001011111001, Src_2:01001000010000010001010110001010, Shamt:00110, Funct:010001
# ALU_result:   4198536, Z:0, C:0
# Src_1:01101010100001010101001010010011, Src_2:01101001000111011011000100000111, Shamt:00010, Funct:001010
# ALU_result:  23568780, Z:0, C:0
# Src_1:01010110011101001101001101000010, Src_2:00010110011001101111100100111010, Shamt:00110, Funct:100010
# ALU_result:  22664013, Z:0, C:0
# Src_1:00111100111100100000001011100011, Src_2:01000101010011101010101010010100, Shamt:00100, Funct:010001
# ALU_result:  71434880, Z:0, C:0
# Src_1:01101001110010000001001011000110, Src_2:00000100100011001000000001101110, Shamt:00101, Funct:001010
# ALU_result:1698402904, Z:0, C:0
# Src_1:00100101011111001010011100101110, Src_2:11110110110011101100001111010100, Shamt:11111, Funct:100010
# ALU_result:         0, Z:1, C:0
# Src_1:01001110111100101110110001010111, Src_2:01111111010000100101110011100101, Shamt:00010, Funct:001010
# ALU_result:3484454770, Z:0, C:1
# Src_1:00110010011111101011010100010100, Src_2:01000001110000100010000010001110, Shamt:10000, Funct:010001
# ALU_result:   4333572, Z:0, C:0
# Src_1:00001111111101101110011000101001, Src_2:00111011111100001100010001101011, Shamt:10001, Funct:001001
# ALU_result:1273473684, Z:0, C:0
# Src_1:00000010101011001001111011001101, Src_2:01000011000010110100010001110011, Shamt:00000, Funct:001010
# ALU_result:3215022682, Z:0, C:1
# Src_1:01000100101011110010000010010110, Src_2:01111001110000011100000011110111, Shamt:10101, Funct:100010
# ALU_result:       549, Z:0, C:0
# Src_1:00010010001000111110000101100101, Src_2:01111011100100010010111000100011, Shamt:10100, Funct:001010
# ALU_result:2526196546, Z:0, C:1
# Src_1:00000110010010001101101101011000, Src_2:00000011110001110010111101101010, Shamt:00110, Funct:001001
# ALU_result: 168823490, Z:0, C:0
# Src_1:01011111111011001000010000001101, Src_2:01000110000101111101110010010001, Shamt:00000, Funct:001010
# ALU_result: 433366908, Z:0, C:0
# Src_1:01010110101100001111100101110111, Src_2:01100100000011110011110100101101, Shamt:01001, Funct:001001
# ALU_result:3133159076, Z:0, C:0
# Src_1:00101110101101111001101000000100, Src_2:01101101101010100011110100001101, Shamt:01111, Funct:001010
# ALU_result:3238878455, Z:0, C:1
# Src_1:01101110001011111010111111000001, Src_2:00010001101101011000101100100000, Shamt:10110, Funct:001010
# ALU_result:1551508641, Z:0, C:0
# Src_1:01101111011100110011111000001100, Src_2:01100010111100010001110011100001, Shamt:01111, Funct:010001
# ALU_result:1651579904, Z:0, C:0
# Src_1:00001001000000001001110101011101, Src_2:01111010111010000100000000110101, Shamt:01001, Funct:001001
# ALU_result:2213076370, Z:0, C:0
# Src_1:00100000011100011001010001001010, Src_2:10001000010110000101110100100000, Shamt:11101, Funct:010001
# ALU_result:   5248000, Z:0, C:0
# Src_1:00010011100000000100010111110000, Src_2:00011000000000110110110111001010, Shamt:10101, Funct:100010
# ALU_result:       156, Z:0, C:0
# Src_1:01001000100001100111101110000000, Src_2:01000101110100010110011101010110, Shamt:00011, Funct:100010
# ALU_result: 152096624, Z:0, C:0
# Src_1:00110111100000001000001101011110, Src_2:00110000101000010101110110100010, Shamt:00001, Funct:100010
# ALU_result: 465584559, Z:0, C:0
# Src_1:01100001100110101000010011000001, Src_2:01111110110011100111001110010110, Shamt:10110, Funct:100010
# ALU_result:       390, Z:0, C:0
# Src_1:10100100100000001010111010000100, Src_2:00110010000001011010111100001000, Shamt:01000, Funct:100010
# ALU_result:  10780846, Z:0, C:0
# Src_1:00110011011111001101110000101110, Src_2:01110100011100010001000110001010, Shamt:11110, Funct:100010
# ALU_result:         0, Z:1, C:0
# Src_1:00010110100101110000111010000101, Src_2:00011010000101011101001100100100, Shamt:00100, Funct:001001
# ALU_result: 816636329, Z:0, C:0
# Src_1:01111011110001010011110111000111, Src_2:01111100100011000101110001111100, Shamt:11101, Funct:001001
# ALU_result:4166097475, Z:0, C:0
# Src_1:00000001001101011101011011110100, Src_2:01101101110111001000100000101000, Shamt:10111, Funct:100010
# ALU_result:         2, Z:0, C:0
# Src_1:01111110101000100011101010110100, Src_2:01101111110111011101101010001011, Shamt:01111, Funct:001010
# ALU_result: 247750697, Z:0, C:0
# Src_1:01101111001100001001000101010110, Src_2:01000110110111001111101011010101, Shamt:11110, Funct:010001
# ALU_result:1175490644, Z:0, C:0
# Src_1:01000101001001110010010010111000, Src_2:01011111110101010000100010100110, Shamt:00101, Funct:100010
# ALU_result:  36256037, Z:0, C:0
# Src_1:01110011001011101101100000011000, Src_2:00111101110111001111111100010101, Shamt:11100, Funct:010001
# ALU_result: 822925328, Z:0, C:0
# Src_1:01010100110100101111110110010100, Src_2:01010100000101001101001010100000, Shamt:11100, Funct:100010
# ALU_result:         5, Z:0, C:0
# Src_1:01101110001010000101101111001101, Src_2:01010111111011001110101110010010, Shamt:01010, Funct:010001
# ALU_result:1177045888, Z:0, C:0
# Src_1:00111111011110100110101111010111, Src_2:01011100100101000111111010011011, Shamt:10110, Funct:001010
# ALU_result:3806719292, Z:0, C:1
# Src_1:00010101101101010101111101001101, Src_2:01010010010011001110011111111101, Shamt:01111, Funct:001010
# ALU_result:3278403408, Z:0, C:1
# ** Note: $stop    : D:/c_Dpractice/Computer_organization/Computer_organization/HW1/tb_ALU.v(114)
#    Time: 2 us  Iteration: 1  Instance: /tb_ALU
# Break in NamedBeginStat StimuliProcess at D:/c_Dpractice/Computer_organization/Computer_organization/HW1/tb_ALU.v line 114
quit -sim
# End time: 01:35:10 on Mar 17,2024, Elapsed time: 0:19:25
# Errors: 0, Warnings: 1
vsim -gui work.tb_ALU
# vsim -gui work.tb_ALU 
# Start time: 01:35:16 on Mar 17,2024
# Loading work.tb_ALU
# Loading work.ALU
# ** Warning: (vsim-PLI-3691) D:/c_Dpractice/Computer_organization/Computer_organization/HW1/tb_ALU.v(101): Expected a system task, not a system function '$fscanf'.
#    Time: 0 ns  Iteration: 0  Region: /tb_ALU/StimuliProcess File: D:/c_Dpractice/Computer_organization/Computer_organization/HW1/tb_ALU.v
add wave -position insertpoint  \
sim:/tb_ALU/Src_1 \
sim:/tb_ALU/Src_2 \
sim:/tb_ALU/Shamt \
sim:/tb_ALU/Funct \
sim:/tb_ALU/ALU_result \
sim:/tb_ALU/Zero \
sim:/tb_ALU/Carry
run -all
# Src_1:00101111101110101110011000111010, Src_2:01101010011110010111100010110101, Shamt:10100, Funct:001010
# ALU_result:3309399429, Z:0, C:1
# Src_1:01000001010000110000000011001001, Src_2:01010010000000101101100011010100, Shamt:11101, Funct:010001
# ALU_result:1073873088, Z:0, C:0
# Src_1:00001011111000001100101001000100, Src_2:00110111000110101111110101111011, Shamt:00010, Funct:001010
# ALU_result:3569732809, Z:0, C:1
# Src_1:00010011010101011011100111010101, Src_2:01000001010110110101011001110110, Shamt:10001, Funct:001001
# ALU_result:1420890187, Z:0, C:0
# Src_1:01001011100011111110011010110000, Src_2:01100010110010111000101110011111, Shamt:11010, Funct:001010
# ALU_result:3905182481, Z:0, C:1
# Src_1:01011010101111001001000100100110, Src_2:00101001111011011000000111100100, Shamt:11111, Funct:001010
# ALU_result: 818876226, Z:0, C:0
# Src_1:01110011111101011011011011101010, Src_2:00111000100101011010111110001000, Shamt:10011, Funct:100010
# ALU_result:      3710, Z:0, C:0
# Src_1:01011010011000110111111110001101, Src_2:00011110100000001010000111010100, Shamt:01101, Funct:001001
# ALU_result:2028216673, Z:0, C:0
# Src_1:00001000000001000001000011000101, Src_2:01110110100101100001010111011001, Shamt:00111, Funct:100010
# ALU_result:   1050657, Z:0, C:0
# Src_1:01001001010110110001000101101101, Src_2:10110101010101100110011111100100, Shamt:11110, Funct:001001
# ALU_result:4273043793, Z:0, C:0
# Src_1:01001010101110111100000101011110, Src_2:00100000111000100111100110011001, Shamt:01000, Funct:100010
# ALU_result:   4897729, Z:0, C:0
# Src_1:01000011101100100110011100000100, Src_2:01010100010011101101111011110101, Shamt:01101, Funct:100010
# ALU_result:    138643, Z:0, C:0
# Src_1:01000000000000010111111111110111, Src_2:01011010110100000011110101000010, Shamt:00101, Funct:001010
# ALU_result:3845210805, Z:0, C:1
# Src_1:00010011010100101101111100101100, Src_2:00100111001011110001011000001011, Shamt:11101, Funct:001001
# ALU_result: 981595447, Z:0, C:0
# Src_1:00100111011100110000110111111100, Src_2:00000111100010100001100111100001, Shamt:01010, Funct:001001
# ALU_result: 788342749, Z:0, C:0
# Src_1:01010101010010110010101011010110, Src_2:11011000011100101001001100101110, Shamt:00110, Funct:010001
# ALU_result:1346503174, Z:0, C:0
# Src_1:01010110000110100001100110101110, Src_2:01000011011100001001111100001000, Shamt:01000, Funct:001010
# ALU_result: 313096870, Z:0, C:0
# Src_1:01111001010000100110110011111111, Src_2:00000100001001101101100100010010, Shamt:01011, Funct:001001
# ALU_result:2104051217, Z:0, C:0
# Src_1:11000011111101010010100000111000, Src_2:00111111101111011101101111111001, Shamt:11101, Funct:010001
# ALU_result:  62195768, Z:0, C:0
# Src_1:00010101010001010100010001101110, Src_2:00111111111100100010000011000111, Shamt:11100, Funct:010001
# ALU_result: 356515910, Z:0, C:0
# Src_1:01101111100110100011001001100010, Src_2:00010100001000101100000100100101, Shamt:10100, Funct:001001
# ALU_result:2210198407, Z:0, C:0
# Src_1:01000000011010100011111011000101, Src_2:00000010111001000011010111011110, Shamt:00010, Funct:010001
# ALU_result:   6304964, Z:0, C:0
# Src_1:01010100101101000010000111010100, Src_2:00011001011101110001001000110011, Shamt:00000, Funct:100010
# ALU_result:1421091284, Z:0, C:0
# Src_1:00110011111111101011011000001101, Src_2:00011000111110011000100111011011, Shamt:11111, Funct:010001
# ALU_result: 284721161, Z:0, C:0
# Src_1:01100010100010101001100010100110, Src_2:01010011100001011011110111100011, Shamt:10110, Funct:001010
# ALU_result: 251976387, Z:0, C:0
# Src_1:01101110110000110011111011100001, Src_2:01000001001111011111111011011001, Shamt:10010, Funct:100010
# ALU_result:      7088, Z:0, C:0
# Src_1:01110100100000101110110011111010, Src_2:00111011001010101010001101001000, Shamt:00000, Funct:001001
# ALU_result:2947387458, Z:0, C:0
# Src_1:01100001111111101011110100001001, Src_2:01010000000111101100010001100010, Shamt:00100, Funct:001001
# ALU_result:2988278123, Z:0, C:0
# Src_1:01001010011011010101001111010110, Src_2:01011100101000110110101000101101, Shamt:11010, Funct:010001
# ALU_result:1210139140, Z:0, C:0
# Src_1:01110111100111110000010011101011, Src_2:00011001011100010000001101111100, Shamt:11110, Funct:001010
# ALU_result:1580073327, Z:0, C:0
# Src_1:00111001010100001011011011000000, Src_2:01001010010010110110100110101110, Shamt:00011, Funct:001001
# ALU_result:2208047214, Z:0, C:0
# Src_1:01101001111011101111111111000100, Src_2:00110000010101010110101010001001, Shamt:11010, Funct:100010
# ALU_result:        26, Z:0, C:0
# Src_1:00001101111100111110111000101010, Src_2:01101110001010001111011000000011, Shamt:10100, Funct:001010
# ALU_result:2680879143, Z:0, C:1
# Src_1:01001111001100101100100011000001, Src_2:00001000110011000101010001111010, Shamt:11011, Funct:001010
# ALU_result:1181119559, Z:0, C:0
# Src_1:01110001110101111101111010110010, Src_2:00011111001000001100010100100010, Shamt:11000, Funct:010001
# ALU_result: 285262882, Z:0, C:0
# Src_1:01011000010111011110111110011011, Src_2:01011000011011110010110111000001, Shamt:10101, Funct:001010
# ALU_result:4293837274, Z:0, C:1
# Src_1:01110011001110111100001110001110, Src_2:01000001111111110010111000010010, Shamt:00110, Funct:001010
# ALU_result: 826054012, Z:0, C:0
# Src_1:01110001110101111001100000011010, Src_2:01101011001000011011011000111001, Shamt:01000, Funct:010001
# ALU_result:1627492376, Z:0, C:0
# Src_1:01001110111100111010001101101111, Src_2:00000110000111100100001101001111, Shamt:00100, Funct:100010
# ALU_result:  82786870, Z:0, C:0
# Src_1:10001000100100011111000000101110, Src_2:00111010111100111101110101110000, Shamt:01000, Funct:100010
# ALU_result:   8950256, Z:0, C:0
# Src_1:01011100010110000011100000101011, Src_2:01011110100001110111110000001101, Shamt:00011, Funct:010001
# ALU_result:1543518217, Z:0, C:0
# Src_1:01001111110110010110011110101110, Src_2:01000010100101010010011111010010, Shamt:00011, Funct:010001
# ALU_result:1116809090, Z:0, C:0
# Src_1:01110010010010101110000101001101, Src_2:01010101010010010000111001100000, Shamt:00010, Funct:001010
# ALU_result: 486658797, Z:0, C:0
# Src_1:01011110001000001111011011000010, Src_2:01001001101000001101100100000111, Shamt:11111, Funct:100010
# ALU_result:         0, Z:1, C:0
# Src_1:11010100011001011110001000110100, Src_2:00111011100001000110000111110111, Shamt:00101, Funct:100010
# ALU_result: 111357713, Z:0, C:0
# Src_1:01001111000101101010011001000010, Src_2:01001111101111111100101101011111, Shamt:01011, Funct:001001
# ALU_result:2664853921, Z:0, C:0
# Src_1:00111110101111110001001000011000, Src_2:01011110000001010001011111010110, Shamt:01010, Funct:010001
# ALU_result: 503648784, Z:0, C:0
# Src_1:01110001010100101001000101010101, Src_2:11011111101101001000001011010100, Shamt:11011, Funct:010001
# ALU_result:1360035924, Z:0, C:0
# Src_1:00011001111011001111010110101001, Src_2:01111111110001010111101110010111, Shamt:10001, Funct:001010
# ALU_result:2586278418, Z:0, C:1
# Src_1:00101111011000111111010110111001, Src_2:01100001010010100110010000100110, Shamt:01011, Funct:001010
# ALU_result:3457782163, Z:0, C:1
# Src_1:01011110001101110110000001010001, Src_2:10010111010101011010100000010010, Shamt:11110, Funct:010001
# ALU_result: 370483216, Z:0, C:0
# Src_1:00000001100001010110111100000011, Src_2:01010111000011110011100011101010, Shamt:10101, Funct:001010
# ALU_result:2859873817, Z:0, C:1
# Src_1:01100000000011100100111110001000, Src_2:00101010011001101101101001111000, Shamt:11110, Funct:001001
# ALU_result:2322934272, Z:0, C:0
# Src_1:01001100110110101110111101100001, Src_2:00110110000101110110010001100110, Shamt:01000, Funct:001010
# ALU_result: 381913851, Z:0, C:0
# Src_1:00011010111000011111110110001101, Src_2:01111010011100000101010101011100, Shamt:00001, Funct:010001
# ALU_result: 442520844, Z:0, C:0
# Src_1:00011100010000010110100010111100, Src_2:10100010111001110111010101000110, Shamt:01001, Funct:010001
# ALU_result:   4284420, Z:0, C:0
# Src_1:10111100110011100101000010000010, Src_2:01111101001011111100001101011111, Shamt:11011, Funct:100010
# ALU_result:        23, Z:0, C:0
# Src_1:00000001011000101100010100011001, Src_2:01001110111010100111011100000001, Shamt:01111, Funct:001010
# ALU_result:2994228760, Z:0, C:1
# Src_1:00101001010010110001011101000000, Src_2:00110110000001010011100110010100, Shamt:00000, Funct:010001
# ALU_result: 536940800, Z:0, C:0
# Src_1:00111100011000001010100000010001, Src_2:00110101011010101011011001110000, Shamt:00000, Funct:100010
# ALU_result:1012967441, Z:0, C:0
# Src_1:01100000000101101100001110001101, Src_2:01100100010100110101010101001111, Shamt:01011, Funct:010001
# ALU_result:1611809037, Z:0, C:0
# Src_1:01010010110111110010101110001110, Src_2:00101110101001100001011001100110, Shamt:10010, Funct:001010
# ALU_result: 607720744, Z:0, C:0
# Src_1:00001000011100110100111101101010, Src_2:01100110101110110100000010101000, Shamt:01101, Funct:001010
# ALU_result:2713194178, Z:0, C:1
# Src_1:00001110101000110010000100011000, Src_2:01111001011011010011000111110111, Shamt:11001, Funct:010001
# ALU_result: 136388880, Z:0, C:0
# Src_1:11011001010111101101001000011100, Src_2:00001110010001010010110111011010, Shamt:00101, Funct:001001
# ALU_result:3886284790, Z:0, C:0
# Src_1:00100001101011101011101111100111, Src_2:00100010100110001100101110100111, Shamt:00000, Funct:001010
# ALU_result:4279627840, Z:0, C:1
# Src_1:00100010000000010111110010001111, Src_2:00010110010011011100100111111001, Shamt:10010, Funct:001001
# ALU_result: 944719496, Z:0, C:0
# Src_1:00111111001110000010111000001010, Src_2:00010010001100010110110010110111, Shamt:00101, Funct:010001
# ALU_result: 305146882, Z:0, C:0
# Src_1:01000000001001111100111010001101, Src_2:00010001111011000100101101000101, Shamt:10010, Funct:010001
# ALU_result:   2378245, Z:0, C:0
# Src_1:10101010110111111110111111000110, Src_2:01110011100101101010100110101000, Shamt:11110, Funct:100010
# ALU_result:         2, Z:0, C:0
# Src_1:00110000010110101110101010001001, Src_2:01000111000001011110010111000010, Shamt:11110, Funct:100010
# ALU_result:         0, Z:1, C:0
# Src_1:00010100011010101000000100011001, Src_2:00011110010011001001011100001010, Shamt:11000, Funct:010001
# ALU_result: 340295944, Z:0, C:0
# Src_1:01111111011000111101001100000010, Src_2:00111011110111001000100011100011, Shamt:11011, Funct:100010
# ALU_result:        15, Z:0, C:0
# Src_1:00111101001110010011111000110110, Src_2:00111100101010011100001001011010, Shamt:00011, Funct:001010
# ALU_result:   9403356, Z:0, C:0
# Src_1:01100011010100010100010100101101, Src_2:00101001001100110100001001110001, Shamt:10000, Funct:001010
# ALU_result: 975045308, Z:0, C:0
# Src_1:01010011100101010100110000001111, Src_2:01010100010000001111101110000001, Shamt:01100, Funct:010001
# ALU_result:1342195713, Z:0, C:0
# Src_1:00010111100010010001110001111100, Src_2:01101011010000010000110111110111, Shamt:11000, Funct:100010
# ALU_result:        23, Z:0, C:0
# Src_1:00010000100010011010001111101110, Src_2:01010001010001010111001001001110, Shamt:01010, Funct:001010
# ALU_result:3208917408, Z:0, C:1
# Src_1:01010001100011001110101110010011, Src_2:00001010101110000000001100111111, Shamt:11011, Funct:010001
# ALU_result:   8913683, Z:0, C:0
# Src_1:00010001000110110010101101111100, Src_2:00000010000111000111001101110111, Shamt:10101, Funct:001010
# ALU_result: 251574277, Z:0, C:0
# Src_1:00000101001000100001110011111101, Src_2:11010110101100000000100111000100, Shamt:11111, Funct:100010
# ALU_result:         0, Z:1, C:0
# Src_1:00101110101010001111100110110001, Src_2:00100111110000011011101010011011, Shamt:00101, Funct:100010
# ALU_result:  24463309, Z:0, C:0
# Src_1:00100110010010010110101100100110, Src_2:01001101101100101111101010100000, Shamt:10101, Funct:001001
# ALU_result:1945920966, Z:0, C:0
# Src_1:01100100100111101000011011000111, Src_2:00011111100010000000000101100010, Shamt:10000, Funct:001001
# ALU_result:2217117737, Z:0, C:0
# Src_1:01100001100011111001010100111011, Src_2:01110000110011000011111110101100, Shamt:11110, Funct:001010
# ALU_result:4039333263, Z:0, C:1
# Src_1:00010100000000010111111011100110, Src_2:01000110000001101110011111110010, Shamt:10110, Funct:001001
# ALU_result:1510500056, Z:0, C:0
# Src_1:01000100111010100111110010000010, Src_2:01011001001101011011010100010001, Shamt:01001, Funct:001010
# ALU_result:3954493297, Z:0, C:1
# Src_1:01111100100001101101000010010101, Src_2:00010000011111001010011010101100, Shamt:11101, Funct:001010
# ALU_result:1812605417, Z:0, C:0
# Src_1:00010010101000001110111100101000, Src_2:00010111100001110001001011001001, Shamt:01111, Funct:100010
# ALU_result:      9537, Z:0, C:0
# Src_1:01110111111011100111100010101111, Src_2:00011110110101101001111001101101, Shamt:10000, Funct:100010
# ALU_result:     30702, Z:0, C:0
# Src_1:00100101110111110110000011001011, Src_2:01100101101110001011101001011110, Shamt:01101, Funct:001010
# ALU_result:3223758445, Z:0, C:1
# Src_1:01111100111111110110001111110011, Src_2:01100000000100000000000011011111, Shamt:10011, Funct:010001
# ALU_result:1611661523, Z:0, C:0
# Src_1:00111001010111111101001000111011, Src_2:01101010111010100001011101111001, Shamt:10110, Funct:100010
# ALU_result:       229, Z:0, C:0
# Src_1:01110110110101110101101000110100, Src_2:00001000100010100100001000011101, Shamt:00111, Funct:100010
# ALU_result:  15576756, Z:0, C:0
# Src_1:00010101011010011000100011001011, Src_2:01110110011010001001110011101111, Shamt:01110, Funct:001010
# ALU_result:2667637724, Z:0, C:1
# Src_1:01111001111010111000100100111111, Src_2:00010011010111001010000111001011, Shamt:01010, Funct:100010
# ALU_result:   1997538, Z:0, C:0
# Src_1:01001101010001011100010011110101, Src_2:01100110100111010110001010101111, Shamt:01010, Funct:001001
